78 ad fe 1d ae ff 1d 8d
16 03 8e 17 03 a9 80 20 90 ff 58 00 68 85 05 68
85 04 68 85 03 68 85 02 68 85 01 68 85 00 ba 86
06 38 a5 01 e9 02 85 01 a5 00 e9 00 85 00 20 b2
1c a2 42 a9 2a 20 db 1b a9 52 d0 1c a9 3f 20 d2
ff 20 b2 1c a9 2e 20 d2 ff a9 00 85 27 20 40 1c
c9 2e f0 f9 c9 20 f0 f5 a2 07 dd e6 1d d0 12 85
1c 8a 0a aa bd ee 1d 85 c1 bd ef 1d 85 c2 6c c1
00 ca 10 e6 4c 4b 1b 20 bd 1b 90 f8 20 ee 1b 20
bd 1b 90 f0 20 ee 1b 20 4c 1c f0 1f 20 b2 1c a2
2e a9 3a 20 db 1b 20 c5 1b a9 05 20 6f 1c a5 c3
c5 c1 a5 c4 e5 c2 b0 df 4c 50 1b 4c 50 1b 20 fe
1b 85 c1 86 c2 60 a5 c2 20 cc 1b a5 c1 48 4a 4a
4a 4a 20 e4 1b aa 68 29 0f 20 e4 1b 48 8a 20 d2
ff 68 4c d2 ff 18 69 f6 90 02 69 06 69 3a 60 a2
02 b5 c0 48 b5 c2 95 c0 68 95 c2 ca d0 f3 60 20
0d 1c 90 07 aa 20 0d 1c 90 01 60 4c 4b 1b a9 00
85 2a 20 40 1c c9 20 f0 f9 20 20 1c 90 17 20 40
1c c9 30 90 10 20 35 1c 06 2a 06 2a 06 2a 06 2a
05 2a 85 2a 38 60 c9 3a 08 29 0f 28 90 02 69 08
60 20 cf ff c9 0d d0 f8 68 68 4c 50 1b a5 91 c9
fe d0 05 08 20 cc ff 28 60 20 61 1c 2c 2d 91 30
f8 60 20 4c 1c d0 08 a9 03 85 9a a9 00 85 99 60
85 1e a0 00 20 af 1c b1 c1 20 cc 1b 20 a4 1c c6
1e d0 f1 60 20 0d 1c 90 0b a2 00 81 c1 c1 c1 f0
03 4c 4b 1b 20 a4 1c c6 1e 60 a9 02 85 c1 a9 00
85 c2 a9 05 60 e6 c1 d0 06 e6 c2 d0 02 e6 27 60
a9 20 2c a9 0d 4c d2 ff a2 00 bd d0 1d 20 d2 ff
e8 e0 16 d0 f5 20 b2 1c a2 2e a9 3b 20 db 1b a5
00 20 cc 1b a5 01 20 cc 1b 20 99 1c 20 6f 1c 4c
50 1b 20 fe 1b 85 01 86 00 20 99 1c 85 1e 20 83
1c d0 fb f0 ea 20 bd 1b a9 05 85 1e 20 83 1c d0
fb f0 dc 20 cf ff c9 0d f0 07 20 bd 1b 85 01 86
00 a6 06 9a a5 00 48 a5 01 48 a5 02 48 a5 03 a6
04 a4 05 40 78 a6 06 9a 6c 02 c0 4c 4b 1b a0 01
84 ba 84 b9 88 84 b7 84 90 84 93 a9 02 85 bc a9
40 85 bb 20 cf ff c9 20 f0 f9 c9 0d f0 1a c9 22
d0 d9 20 cf ff c9 22 f0 26 c9 0d f0 0b 91 bb e6
b7 c8 c0 10 f0 c5 d0 ea a5 1c c9 4c d0 e2 a9 00
20 d5 ff 20 58 1c a5 90 29 10 d0 f0 4c 50 1b 20
cf ff c9 0d f0 e2 c9 2c d0 f0 20 0d 1c 29 0f f0
d3 c9 03 f0 fa 85 ba 20 cf ff c9 0d f0 ca c9 2c
d0 e6 20 bd 1b 20 cf ff c9 2c d0 f4 20 fe 1b 85
ae 86 af 20 cf ff c9 20 f0 f9 c9 0d d0 ec a5 1c
c9 53 d0 f8 20 b2 1c a9 01 85 b9 20 82 f6 4c 50
1b 0d 20 20 20 50 43 20 20 53 52 20 41 43 20 58
52 20 59 52 20 53 50 4d 52 58 47 3a 3b 4c 53 86
1b b7 1c 23 1d 02 1d f4 1c e1 1c 2d 1d 2d 1d 1b
1b
